{
  "attribute_schachomeorganizationtype": {
     "en": "Organization type",
     "hu": "Az intézmény jellege"
  },
  "attribute_niifPersonOrgID": {
    "en": "Learning system identifier",
    "hu": "Oktatási rendszer azonosító"
  },
  "attribute_niifEduPersonFaculty": {
    "en": "Primary faculty",
    "hu": "Hallgató kara"
  },
  "attribute_niifPersonAttendedCourse": {
    "en": "Attended course",
    "hu": "Képzés megnevezése"
  }
}
